{
  "project_info": {
    "project_number": "514384872456",
    "firebase_url": "https://remotegen-1525021368341.firebaseio.com",
    "project_id": "remotegen-1525021368341",
    "storage_bucket": "remotegen-1525021368341.appspot.com"
  },
  "client": [
    {
      "client_info": {
        "mobilesdk_app_id": "1:514384872456:android:67d5073a9b92f132",
        "android_client_info": {
          "package_name": "com.remotegen.app"
        }
      },
      "oauth_client": [
        {
          "client_id": "514384872456-odsrgnndiu4akr0jiunt4p2f0gpniivi.apps.googleusercontent.com",
          "client_type": 1,
          "android_info": {
            "package_name": "com.remotegen.app",
            "certificate_hash": "2a36f6fbe0c773d17d7b64058d4a72196a2c754c"
          }
        },
        {
          "client_id": "514384872456-chd9lk9iekjsa5kb1vh9ju5h7657lioc.apps.googleusercontent.com",
          "client_type": 3
        },
        {
          "client_id": "514384872456-chd9lk9iekjsa5kb1vh9ju5h7657lioc.apps.googleusercontent.com",
          "client_type": 3
        }
      ],
      "api_key": [
        {
          "current_key": "AIzaSyC-3aBofbkHvTIDPwIXpGdzJpSXV532hVQ"
        }
      ],
      "services": {
        "analytics_service": {
          "status": 1
        },
        "appinvite_service": {
          "status": 2,
          "other_platform_oauth_client": [
            {
              "client_id": "514384872456-chd9lk9iekjsa5kb1vh9ju5h7657lioc.apps.googleusercontent.com",
              "client_type": 3
            }
          ]
        },
        "ads_service": {
          "status": 2
        }
      }
    }
  ],
  "configuration_version": "1"
}